"akash143420@gmail.com ",5,USD,asdf,"THANKS FOR USING ESPYLINK"
harpartap.singh10@gmail.com,11,USD,Honey,"THANKS FOR USING ESPYLINK"
ashish.debut@gmail.com,1,USD,Test,"THANKS FOR USING ESPYLINK"
gunamesingh@gmail.com,7,USD,Gurpreet,"THANKS FOR USING ESPYLINK"
ashish.debut@gmail.com,9.5,USD,Test,"THANKS FOR USING ESPYLINK"
nutro@hotmail.com,1,USD,Steven,"THANKS FOR USING ESPYLINK"
